…
seed(2019)
x <- sample(1:500,200,replace=T)
y <- sample(1:500,200,replace=T)

votes <- data.frame(x,y)
votes %>%
    rowwise() %>%
    mutate(pos=min(x,y),total=max(x,y)) %>%
    select(total, pos) %>%
    mutate(Wilson=Wilson(total,pos)) %>%
    arrange(desc(Wilson))

And the pseudo-results are:

# A tibble: 200 x 3
   total   pos Wilson
   <int> <int>  <dbl>
 1   473   467  0.973
 2   494   487  0.971
 3   390   385  0.970
 4   234   232  0.969
 5   354   347  0.960
 6   237   233  0.957
 7   123   121  0.943
 8   391   376  0.938
 9   296   285  0.935
10   415   397  0.932
# ... with 190 more rows
…
